[
  {
    "id": 1,
    "firstName": "Maria",
    "lastName": "Puchkova",
    "email": "maria.puchkova@example.com",
    "password": "123"
  },
  {
    "id": 2,
    "firstName": "M",
    "lastName": "P",
    "email": "m.p@example.com",
    "password": "321"
  }
]