@startuml

class Application {
  +void run()
}

class Frontend {
  + showMenu()  
  + saveTicket()
  + showData(JSON): void
  + бронироватьместо(): void
}
note left: Показывает что-то\nна экране

class Backend{
  + processRequest(JSON request): JSON
}


class TicketRepository {
  + updete()
  + delete()
  + getTicketByUserId(userId: number): Ticket[] | null
}

class TrainRepository {
  + updete()
  + delete()
}

class UserRepository {
  + updete()
  + delete()
  + getUserById(Id: number): User | null
}

interface Database {
  + save(Object: Ticket)
  + save(Object: User)
  + save(Object: Train)
}
note left: Сохраняет и \nзагружает данные

abstract class Profile {
  - id: int
  - имя: string
  - фамилия: string
  + getid(): int
  + role: Roles
  + setid(id: int): void
  + getимя(): string
  + setимя(имя: string): void
  + getфамилия(): string
  + setфамилия(фамилия: string): void

}

class User extends Profile {
  - адрес_электронной_почты: string
  - пароль: string
  + getадрес_электронной_почты(): string
  + setадрес_электронной_почты(адрес_электронной_почты: string): void
  + getпароль(): string
  + setпароль(пароль: string): void
}

class Admin extends Profile {
  - AdminID: int 
  + getAdminID(): int
  + setAdminID(id: int): void
}
enum Roles {
  ADMIN
  USER 
}

class Train {
  - id: int
  - id_Timetables: list
  - места_в_поезде: int
  + getid(): int
  + setid(id: int): void
  + getрасписание(): string
  + setрасписание(расписание: string): void
  + getместа_в_поезде(): int
  + setместа_в_поезде(места_в_поезде: int): void
  + getсвободные_места(): int

}
class Timetable {
  - id: int
  - id_Train: int
  - id_StationОтправления: int
  - id_StationПрибытия: int
  - времяПрибытия: time 
  - времяОтправления: time
}


class Station {
  - id: int
  - названиеСтанции: string
}

class Сart extends Train {
  - id: int
  - idМеста: int
  - номерВагона: int
  - статусМеста: bool
  + seat: Seats
}
enum Seats {
  числоСompartmentСart = 40
  числоReservedSeatCart = 60
  числоSleepingCart = 20  
}

class Ticket {
  - id: int
  - id_пользователя: int
  - id_Места: int
  - id_Cart: int
  - дата_и_время_покупки: string
  - стоимость: double
  + getid(): int
  + setid(id: int): void
  + getid_пользователя(): int
  + setid_пользователя(id_пользователя: int): void
  + getid_поезда(): int
  + setid_поезда(id_поезда: int): void
  + getid_места(): int
  + setid_места(id_места: int): void
  + getid_Cart(): int
  + setid_Cart(id_Cart: int): void
  + getСтанция_отправления(): string
  + setСтанция_отправления(Станция_отправления: string): void
  + getСтанция_прибытия(): string
  + setСтанция_прибытия(Станция_прибытия: string): void
  + getдата_и_время_покупки(): string
  + setдата_и_время_покупки(дата_и_время_покупки: string): void
  + getстоимость(): double
  + setстоимость(стоимость: double): void
}

Roles "1" --> "1..*" Profile
Seats "1" --> "1..*" Сart

User "1" --> "0..*" Ticket : own
Admin "1" --> "1..*" Train: edit
Admin "1" --> "1..*" Ticket: edit
Train "1" -- "1..*" Ticket: has
Station "2..*" -- "1" Train: has
Train "1..*" -- "1" Timetable: has
Station "1..*" -- "1" Timetable: has

Application -- Frontend
Frontend -- Backend: sends requests in JSON
Backend -- TrainRepository: performs operations
Backend -- TicketRepository: performs operations
Backend -- UserRepository: performs operations
Backend -- Frontend: returns responses in JSON

Database <|.. TrainRepository
Database <|.. TicketRepository
Database <|.. UserRepository

@enduml